<?xml version="1.0" encoding="UTF-8" ?>
<testsuite failures="0" time="18.205" errors="0" skipped="0" tests="1" name="com.zuma.db.service.impl.DictionaryDAOImplTest">
  <properties>
    <property name="java.runtime.name" value="Java(TM) SE Runtime Environment"/>
    <property name="sun.boot.library.path" value="C:\Java\jdk1.6.0_45\jre\bin"/>
    <property name="java.vm.version" value="20.45-b01"/>
    <property name="java.vm.vendor" value="Sun Microsystems Inc."/>
    <property name="java.vendor.url" value="http://java.sun.com/"/>
    <property name="path.separator" value=";"/>
    <property name="java.vm.name" value="Java HotSpot(TM) 64-Bit Server VM"/>
    <property name="file.encoding.pkg" value="sun.io"/>
    <property name="user.country" value="US"/>
    <property name="sun.java.launcher" value="SUN_STANDARD"/>
    <property name="sun.os.patch.level" value=""/>
    <property name="java.vm.specification.name" value="Java Virtual Machine Specification"/>
    <property name="user.dir" value="F:\related\zuma-db"/>
    <property name="java.runtime.version" value="1.6.0_45-b06"/>
    <property name="java.awt.graphicsenv" value="sun.awt.Win32GraphicsEnvironment"/>
    <property name="basedir" value="F:\related\zuma-db"/>
    <property name="java.endorsed.dirs" value="C:\Java\jdk1.6.0_45\jre\lib\endorsed"/>
    <property name="os.arch" value="amd64"/>
    <property name="surefire.real.class.path" value="C:\Users\KAMAL~1.HOS\AppData\Local\Temp\surefirebooter5797787306782432927.jar"/>
    <property name="java.io.tmpdir" value="C:\Users\KAMAL~1.HOS\AppData\Local\Temp\"/>
    <property name="line.separator" value="
"/>
    <property name="java.vm.specification.vendor" value="Sun Microsystems Inc."/>
    <property name="user.variant" value=""/>
    <property name="os.name" value="Windows 8"/>
    <property name="sun.jnu.encoding" value="Cp1252"/>
    <property name="java.library.path" value="C:\Java\jdk1.6.0_45\jre\bin;C:\Windows\Sun\Java\bin;C:\Windows\system32;C:\Windows;f:\oracle\app\kamal.hossain\product\11.2.0\dbhome_1\bin;C:\Program Files (x86)\Intel\iCLS Client\;C:\Program Files\Intel\iCLS Client\;C:\Windows\system32;C:\Windows;C:\Windows\System32\Wbem;C:\Windows\System32\WindowsPowerShell\v1.0\;C:\Program Files\Intel\WiFi\bin\;C:\Program Files\Common Files\Intel\WirelessCommon\;C:\Program Files\WIDCOMM\Bluetooth Software\;C:\Program Files\WIDCOMM\Bluetooth Software\syswow64;C:\Program Files\Intel\Intel(R) Management Engine Components\DAL;C:\Program Files\Intel\Intel(R) Management Engine Components\IPT;C:\Program Files (x86)\Intel\Intel(R) Management Engine Components\DAL;C:\Program Files (x86)\Intel\Intel(R) Management Engine Components\IPT;C:\Program Files\Dell\Dell Data Protection\Access\Advanced\Wave\Gemalto\Access Client\v5\;C:\Program Files (x86)\Security Innovation\SI TSS\bin\;C:\Program Files (x86)\Windows Live\Shared;C:\Java\jdk1.6.0_45/bin;C:\Program Files\TortoiseSVN\bin;C:\Program Files (x86)\Git\cmd;C:\Program Files\TortoiseGit\bin;C:\Program Files\TortoiseHg\;F:\apache-maven-2.2.1-bin\apache-maven-2.2.1\bin;C:\Program Files (x86)\SSH Communications Security\SSH Secure Shell;."/>
    <property name="surefire.test.class.path" value="F:\related\zuma-db\target\test-classes;F:\related\zuma-db\target\classes;C:\Users\kamal.hossain\.m2\repository\mysql\mysql-connector-java\5.1.6\mysql-connector-java-5.1.6.jar;C:\Users\kamal.hossain\.m2\repository\commons-io\commons-io\1.4\commons-io-1.4.jar;C:\Users\kamal.hossain\.m2\repository\javassist\javassist\3.8.0.GA\javassist-3.8.0.GA.jar;C:\Users\kamal.hossain\.m2\repository\org\hibernate\hibernate-annotations\3.4.0.GA\hibernate-annotations-3.4.0.GA.jar;C:\Users\kamal.hossain\.m2\repository\org\hibernate\ejb3-persistence\1.0.2.GA\ejb3-persistence-1.0.2.GA.jar;C:\Users\kamal.hossain\.m2\repository\org\hibernate\hibernate-commons-annotations\3.1.0.GA\hibernate-commons-annotations-3.1.0.GA.jar;C:\Users\kamal.hossain\.m2\repository\org\hibernate\hibernate-core\3.3.0.SP1\hibernate-core-3.3.0.SP1.jar;C:\Users\kamal.hossain\.m2\repository\antlr\antlr\2.7.6\antlr-2.7.6.jar;C:\Users\kamal.hossain\.m2\repository\commons-collections\commons-collections\3.1\commons-collections-3.1.jar;C:\Users\kamal.hossain\.m2\repository\dom4j\dom4j\1.6.1\dom4j-1.6.1.jar;C:\Users\kamal.hossain\.m2\repository\xml-apis\xml-apis\1.0.b2\xml-apis-1.0.b2.jar;C:\Users\kamal.hossain\.m2\repository\javax\transaction\jta\1.1\jta-1.1.jar;C:\Users\kamal.hossain\.m2\repository\c3p0\c3p0\0.9.1.2\c3p0-0.9.1.2.jar;C:\Users\kamal.hossain\.m2\repository\cglib\cglib\2.2\cglib-2.2.jar;C:\Users\kamal.hossain\.m2\repository\asm\asm\3.1\asm-3.1.jar;C:\Users\kamal.hossain\.m2\repository\commons-lang\commons-lang\2.4\commons-lang-2.4.jar;C:\Users\kamal.hossain\.m2\repository\net\sf\ehcache\ehcache\1.6.2\ehcache-1.6.2.jar;C:\Users\kamal.hossain\.m2\repository\org\springframework\org.springframework.orm\3.0.0.RC1\org.springframework.orm-3.0.0.RC1.jar;C:\Users\kamal.hossain\.m2\repository\org\apache\commons\com.springsource.org.apache.commons.logging\1.1.1\com.springsource.org.apache.commons.logging-1.1.1.jar;C:\Users\kamal.hossain\.m2\repository\org\springframework\org.springframework.beans\3.0.0.RC1\org.springframework.beans-3.0.0.RC1.jar;C:\Users\kamal.hossain\.m2\repository\org\springframework\org.springframework.core\3.0.0.RC1\org.springframework.core-3.0.0.RC1.jar;C:\Users\kamal.hossain\.m2\repository\org\springframework\org.springframework.asm\3.0.0.RC1\org.springframework.asm-3.0.0.RC1.jar;C:\Users\kamal.hossain\.m2\repository\org\springframework\org.springframework.jdbc\3.0.0.RC1\org.springframework.jdbc-3.0.0.RC1.jar;C:\Users\kamal.hossain\.m2\repository\org\springframework\org.springframework.transaction\3.0.0.RC1\org.springframework.transaction-3.0.0.RC1.jar;C:\Users\kamal.hossain\.m2\repository\org\aopalliance\com.springsource.org.aopalliance\1.0.0\com.springsource.org.aopalliance-1.0.0.jar;C:\Users\kamal.hossain\.m2\repository\org\springframework\org.springframework.aop\3.0.0.RC1\org.springframework.aop-3.0.0.RC1.jar;C:\Users\kamal.hossain\.m2\repository\org\springframework\org.springframework.context\3.0.0.RC1\org.springframework.context-3.0.0.RC1.jar;C:\Users\kamal.hossain\.m2\repository\org\springframework\org.springframework.expression\3.0.0.RC1\org.springframework.expression-3.0.0.RC1.jar;C:\Users\kamal.hossain\.m2\repository\org\springframework\org.springframework.web\3.0.0.RC1\org.springframework.web-3.0.0.RC1.jar;C:\Users\kamal.hossain\.m2\repository\org\springframework\org.springframework.test\3.0.0.RC1\org.springframework.test-3.0.0.RC1.jar;C:\Users\kamal.hossain\.m2\repository\org\springframework\org.springframework.aspects\3.0.0.RC1\org.springframework.aspects-3.0.0.RC1.jar;C:\Users\kamal.hossain\.m2\repository\org\springframework\org.springframework.context.support\3.0.0.RC1\org.springframework.context.support-3.0.0.RC1.jar;C:\Users\kamal.hossain\.m2\repository\org\aspectj\aspectjrt\1.6.5\aspectjrt-1.6.5.jar;C:\Users\kamal.hossain\.m2\repository\org\aspectj\aspectjweaver\1.6.5\aspectjweaver-1.6.5.jar;C:\Users\kamal.hossain\.m2\repository\org\slf4j\slf4j-api\1.5.8\slf4j-api-1.5.8.jar;C:\Users\kamal.hossain\.m2\repository\org\slf4j\slf4j-log4j12\1.5.8\slf4j-log4j12-1.5.8.jar;C:\Users\kamal.hossain\.m2\repository\log4j\log4j\1.2.15\log4j-1.2.15.jar;C:\Users\kamal.hossain\.m2\repository\javax\mail\mail\1.4\mail-1.4.jar;C:\Users\kamal.hossain\.m2\repository\javax\activation\activation\1.1\activation-1.1.jar;C:\Users\kamal.hossain\.m2\repository\junit\junit\4.7\junit-4.7.jar;"/>
    <property name="java.specification.name" value="Java Platform API Specification"/>
    <property name="java.class.version" value="50.0"/>
    <property name="sun.management.compiler" value="HotSpot 64-Bit Tiered Compilers"/>
    <property name="os.version" value="6.2"/>
    <property name="user.home" value="C:\Users\kamal.hossain"/>
    <property name="user.timezone" value="Asia/Dhaka"/>
    <property name="java.awt.printerjob" value="sun.awt.windows.WPrinterJob"/>
    <property name="java.specification.version" value="1.6"/>
    <property name="file.encoding" value="Cp1252"/>
    <property name="user.name" value="kamal.hossain"/>
    <property name="java.class.path" value="F:\related\zuma-db\target\test-classes;F:\related\zuma-db\target\classes;C:\Users\kamal.hossain\.m2\repository\mysql\mysql-connector-java\5.1.6\mysql-connector-java-5.1.6.jar;C:\Users\kamal.hossain\.m2\repository\commons-io\commons-io\1.4\commons-io-1.4.jar;C:\Users\kamal.hossain\.m2\repository\javassist\javassist\3.8.0.GA\javassist-3.8.0.GA.jar;C:\Users\kamal.hossain\.m2\repository\org\hibernate\hibernate-annotations\3.4.0.GA\hibernate-annotations-3.4.0.GA.jar;C:\Users\kamal.hossain\.m2\repository\org\hibernate\ejb3-persistence\1.0.2.GA\ejb3-persistence-1.0.2.GA.jar;C:\Users\kamal.hossain\.m2\repository\org\hibernate\hibernate-commons-annotations\3.1.0.GA\hibernate-commons-annotations-3.1.0.GA.jar;C:\Users\kamal.hossain\.m2\repository\org\hibernate\hibernate-core\3.3.0.SP1\hibernate-core-3.3.0.SP1.jar;C:\Users\kamal.hossain\.m2\repository\antlr\antlr\2.7.6\antlr-2.7.6.jar;C:\Users\kamal.hossain\.m2\repository\commons-collections\commons-collections\3.1\commons-collections-3.1.jar;C:\Users\kamal.hossain\.m2\repository\dom4j\dom4j\1.6.1\dom4j-1.6.1.jar;C:\Users\kamal.hossain\.m2\repository\xml-apis\xml-apis\1.0.b2\xml-apis-1.0.b2.jar;C:\Users\kamal.hossain\.m2\repository\javax\transaction\jta\1.1\jta-1.1.jar;C:\Users\kamal.hossain\.m2\repository\c3p0\c3p0\0.9.1.2\c3p0-0.9.1.2.jar;C:\Users\kamal.hossain\.m2\repository\cglib\cglib\2.2\cglib-2.2.jar;C:\Users\kamal.hossain\.m2\repository\asm\asm\3.1\asm-3.1.jar;C:\Users\kamal.hossain\.m2\repository\commons-lang\commons-lang\2.4\commons-lang-2.4.jar;C:\Users\kamal.hossain\.m2\repository\net\sf\ehcache\ehcache\1.6.2\ehcache-1.6.2.jar;C:\Users\kamal.hossain\.m2\repository\org\springframework\org.springframework.orm\3.0.0.RC1\org.springframework.orm-3.0.0.RC1.jar;C:\Users\kamal.hossain\.m2\repository\org\apache\commons\com.springsource.org.apache.commons.logging\1.1.1\com.springsource.org.apache.commons.logging-1.1.1.jar;C:\Users\kamal.hossain\.m2\repository\org\springframework\org.springframework.beans\3.0.0.RC1\org.springframework.beans-3.0.0.RC1.jar;C:\Users\kamal.hossain\.m2\repository\org\springframework\org.springframework.core\3.0.0.RC1\org.springframework.core-3.0.0.RC1.jar;C:\Users\kamal.hossain\.m2\repository\org\springframework\org.springframework.asm\3.0.0.RC1\org.springframework.asm-3.0.0.RC1.jar;C:\Users\kamal.hossain\.m2\repository\org\springframework\org.springframework.jdbc\3.0.0.RC1\org.springframework.jdbc-3.0.0.RC1.jar;C:\Users\kamal.hossain\.m2\repository\org\springframework\org.springframework.transaction\3.0.0.RC1\org.springframework.transaction-3.0.0.RC1.jar;C:\Users\kamal.hossain\.m2\repository\org\aopalliance\com.springsource.org.aopalliance\1.0.0\com.springsource.org.aopalliance-1.0.0.jar;C:\Users\kamal.hossain\.m2\repository\org\springframework\org.springframework.aop\3.0.0.RC1\org.springframework.aop-3.0.0.RC1.jar;C:\Users\kamal.hossain\.m2\repository\org\springframework\org.springframework.context\3.0.0.RC1\org.springframework.context-3.0.0.RC1.jar;C:\Users\kamal.hossain\.m2\repository\org\springframework\org.springframework.expression\3.0.0.RC1\org.springframework.expression-3.0.0.RC1.jar;C:\Users\kamal.hossain\.m2\repository\org\springframework\org.springframework.web\3.0.0.RC1\org.springframework.web-3.0.0.RC1.jar;C:\Users\kamal.hossain\.m2\repository\org\springframework\org.springframework.test\3.0.0.RC1\org.springframework.test-3.0.0.RC1.jar;C:\Users\kamal.hossain\.m2\repository\org\springframework\org.springframework.aspects\3.0.0.RC1\org.springframework.aspects-3.0.0.RC1.jar;C:\Users\kamal.hossain\.m2\repository\org\springframework\org.springframework.context.support\3.0.0.RC1\org.springframework.context.support-3.0.0.RC1.jar;C:\Users\kamal.hossain\.m2\repository\org\aspectj\aspectjrt\1.6.5\aspectjrt-1.6.5.jar;C:\Users\kamal.hossain\.m2\repository\org\aspectj\aspectjweaver\1.6.5\aspectjweaver-1.6.5.jar;C:\Users\kamal.hossain\.m2\repository\org\slf4j\slf4j-api\1.5.8\slf4j-api-1.5.8.jar;C:\Users\kamal.hossain\.m2\repository\org\slf4j\slf4j-log4j12\1.5.8\slf4j-log4j12-1.5.8.jar;C:\Users\kamal.hossain\.m2\repository\log4j\log4j\1.2.15\log4j-1.2.15.jar;C:\Users\kamal.hossain\.m2\repository\javax\mail\mail\1.4\mail-1.4.jar;C:\Users\kamal.hossain\.m2\repository\javax\activation\activation\1.1\activation-1.1.jar;C:\Users\kamal.hossain\.m2\repository\junit\junit\4.7\junit-4.7.jar;"/>
    <property name="java.vm.specification.version" value="1.0"/>
    <property name="sun.arch.data.model" value="64"/>
    <property name="java.home" value="C:\Java\jdk1.6.0_45\jre"/>
    <property name="sun.java.command" value="C:\Users\KAMAL~1.HOS\AppData\Local\Temp\surefirebooter5797787306782432927.jar C:\Users\KAMAL~1.HOS\AppData\Local\Temp\surefire6149780790392697493tmp C:\Users\KAMAL~1.HOS\AppData\Local\Temp\surefire6509217205576991280tmp"/>
    <property name="java.specification.vendor" value="Sun Microsystems Inc."/>
    <property name="user.language" value="en"/>
    <property name="awt.toolkit" value="sun.awt.windows.WToolkit"/>
    <property name="java.vm.info" value="mixed mode"/>
    <property name="java.version" value="1.6.0_45"/>
    <property name="java.ext.dirs" value="C:\Java\jdk1.6.0_45\jre\lib\ext;C:\Windows\Sun\Java\lib\ext"/>
    <property name="sun.boot.class.path" value="C:\Java\jdk1.6.0_45\jre\lib\resources.jar;C:\Java\jdk1.6.0_45\jre\lib\rt.jar;C:\Java\jdk1.6.0_45\jre\lib\sunrsasign.jar;C:\Java\jdk1.6.0_45\jre\lib\jsse.jar;C:\Java\jdk1.6.0_45\jre\lib\jce.jar;C:\Java\jdk1.6.0_45\jre\lib\charsets.jar;C:\Java\jdk1.6.0_45\jre\lib\modules\jdk.boot.jar;C:\Java\jdk1.6.0_45\jre\classes"/>
    <property name="java.vendor" value="Sun Microsystems Inc."/>
    <property name="localRepository" value="C:\Users\kamal.hossain\.m2\repository"/>
    <property name="file.separator" value="\"/>
    <property name="java.vendor.url.bug" value="http://java.sun.com/cgi-bin/bugreport.cgi"/>
    <property name="sun.cpu.endian" value="little"/>
    <property name="sun.io.unicode.encoding" value="UnicodeLittle"/>
    <property name="sun.desktop" value="windows"/>
    <property name="sun.cpu.isalist" value="amd64"/>
  </properties>
  <testcase time="17.882" classname="com.zuma.db.service.impl.DictionaryDAOImplTest" name="testCountAll"/>
</testsuite>